\relax 
\@writefile{toc}{\contentsline {section}{\numberline {1}Components of GLM}{2}}
\@writefile{toc}{\contentsline {section}{\numberline {2}Quantitative/Qualitative explanatory variables}{2}}
\@writefile{toc}{\contentsline {section}{\numberline {3}Model Matrices \& Model Vector Spaces}{5}}
\@writefile{toc}{\contentsline {section}{\numberline {4}Identifiability and Estimability}{7}}
\@writefile{toc}{\contentsline {section}{\numberline {5}Using R to fit a glm}{9}}
