# Fdb version 3
["pdflatex"] 1467322457 "/Users/luansitao/Documents/Generalized Linear Models/chapter1/part 2.tex" "/Users/luansitao/Documents/Generalized Linear Models/chapter1/part_2.pdf" "part_2" 1467322458
  "/Users/luansitao/Documents/Generalized Linear Models/chapter1/part 2.tex" 1467322456 301 827c10e9363a3226b51da82151f4f951 ""
  "/Users/luansitao/Documents/Generalized Linear Models/chapter1/part_2.aux" 1467322458 8 a94a2480d3289e625eea47cd1b285758 ""
  "/usr/local/texlive/2015/texmf-dist/fonts/map/fontname/texfonts.map" 1272929888 3287 e6b82fe08f5336d4d5ebc73fb1152e87 ""
  "/usr/local/texlive/2015/texmf-dist/fonts/tfm/public/amsfonts/cmextra/cmex7.tfm" 1246382020 1004 54797486969f23fa377b128694d548df ""
  "/usr/local/texlive/2015/texmf-dist/tex/context/base/supp-pdf.mkii" 1337017135 71627 94eb9990bed73c364d7f53f960cc8c5b ""
  "/usr/local/texlive/2015/texmf-dist/tex/generic/oberdiek/etexcmds.sty" 1335995445 7612 c47308d923ec19888707b0f1792b326a ""
  "/usr/local/texlive/2015/texmf-dist/tex/generic/oberdiek/ifluatex.sty" 1303254447 7324 11d14f318d865f420e692d4e6c9c18c3 ""
  "/usr/local/texlive/2015/texmf-dist/tex/generic/oberdiek/ifpdf.sty" 1303254447 7140 ece2cc23d9f20e1f53975ac167f42d3e ""
  "/usr/local/texlive/2015/texmf-dist/tex/generic/oberdiek/infwarerr.sty" 1335995445 8253 3bdedc8409aa5d290a2339be6f09af03 ""
  "/usr/local/texlive/2015/texmf-dist/tex/generic/oberdiek/kvdefinekeys.sty" 1335995445 5152 387d9200f396b498d5fd679ae44ed898 ""
  "/usr/local/texlive/2015/texmf-dist/tex/generic/oberdiek/kvsetkeys.sty" 1335995445 14040 8de9f47fabc4ca3bd69b6d795e32751c ""
  "/usr/local/texlive/2015/texmf-dist/tex/generic/oberdiek/ltxcmds.sty" 1335995445 18425 775b341047ce304520cc7c11ca41392e ""
  "/usr/local/texlive/2015/texmf-dist/tex/generic/oberdiek/pdftexcmds.sty" 1335995445 19987 01cb2f3c1d21e5f05711b7fd50b17f2a ""
  "/usr/local/texlive/2015/texmf-dist/tex/generic/pgf/basiclayer/pgfcore.code.tex" 1288312291 1006 b103be0bfc8c1682ff1fa9760697a329 ""
  "/usr/local/texlive/2015/texmf-dist/tex/generic/pgf/basiclayer/pgfcorearrows.code.tex" 1393459310 42678 ea82fd948b4303ce6a2c8e25d5e8f8aa ""
  "/usr/local/texlive/2015/texmf-dist/tex/generic/pgf/basiclayer/pgfcoreexternal.code.tex" 1393459310 19287 b2041c22301def2360f03c004d16068d ""
  "/usr/local/texlive/2015/texmf-dist/tex/generic/pgf/basiclayer/pgfcoregraphicstate.code.tex" 1393459310 6653 6c617c4a5106d9f40e3d70946ba4e0ac ""
  "/usr/local/texlive/2015/texmf-dist/tex/generic/pgf/basiclayer/pgfcoreimage.code.tex" 1393459310 7041 a891ad72049e17c4e366c40ca37b0ccb ""
  "/usr/local/texlive/2015/texmf-dist/tex/generic/pgf/basiclayer/pgfcorelayers.code.tex" 1393459310 4625 40c07e9f6f2f7c674704b3f2055560ce ""
  "/usr/local/texlive/2015/texmf-dist/tex/generic/pgf/basiclayer/pgfcoreobjects.code.tex" 1203877327 2631 7eefa6cdbefd8d4e2bad7262cf1094cd ""
  "/usr/local/texlive/2015/texmf-dist/tex/generic/pgf/basiclayer/pgfcorepathconstruct.code.tex" 1393459310 43477 81143b33d9ebafdeead07ede13372427 ""
  "/usr/local/texlive/2015/texmf-dist/tex/generic/pgf/basiclayer/pgfcorepathprocessing.code.tex" 1393459310 17436 8d99d4113be311daf23deff86991ee7d ""
  "/usr/local/texlive/2015/texmf-dist/tex/generic/pgf/basiclayer/pgfcorepathusage.code.tex" 1393459310 20857 256da99fc70ea570aad1d50fdfd51464 ""
  "/usr/local/texlive/2015/texmf-dist/tex/generic/pgf/basiclayer/pgfcorepatterns.code.tex" 1393459310 9641 711f0edc22c180a5caf168b6e8970057 ""
  "/usr/local/texlive/2015/texmf-dist/tex/generic/pgf/basiclayer/pgfcorepoints.code.tex" 1393459310 34516 658a71478d21df554bce9d9cd436203a ""
  "/usr/local/texlive/2015/texmf-dist/tex/generic/pgf/basiclayer/pgfcorequick.code.tex" 1288312291 3052 e5672c657232fd63b0a9853b0746297c ""
  "/usr/local/texlive/2015/texmf-dist/tex/generic/pgf/basiclayer/pgfcorescopes.code.tex" 1393459310 16849 86fed972a2b3ad61208a6422e104bf26 ""
  "/usr/local/texlive/2015/texmf-dist/tex/generic/pgf/basiclayer/pgfcoreshade.code.tex" 1393459310 21541 4cd19f8ff7dd74d5aa7d803a6397af84 ""
  "/usr/local/texlive/2015/texmf-dist/tex/generic/pgf/basiclayer/pgfcoretransformations.code.tex" 1393459310 17423 a0f09c822b83b65445bc3ac25542dcc6 ""
  "/usr/local/texlive/2015/texmf-dist/tex/generic/pgf/basiclayer/pgfcoretransparency.code.tex" 1393459310 8943 2e2495b057f8f0035b5568394d489963 ""
  "/usr/local/texlive/2015/texmf-dist/tex/generic/pgf/frontendlayer/tikz/libraries/tikzlibrarydecorations.code.tex" 1393459310 5484 4bb4a5cbbd05d6f17a261b59dbd014f1 ""
  "/usr/local/texlive/2015/texmf-dist/tex/generic/pgf/frontendlayer/tikz/libraries/tikzlibrarydecorations.pathmorphing.code.tex" 1203727794 319 d246cee5ce1aaf2afe558acd4731d5ba ""
  "/usr/local/texlive/2015/texmf-dist/tex/generic/pgf/frontendlayer/tikz/libraries/tikzlibrarydecorations.pathreplacing.code.tex" 1288312291 1255 7940bad47e253420d587a4a875c7c06c ""
  "/usr/local/texlive/2015/texmf-dist/tex/generic/pgf/frontendlayer/tikz/libraries/tikzlibraryplotmarks.code.tex" 1203727794 443 6742ac279d940e87725265f9145ed090 ""
  "/usr/local/texlive/2015/texmf-dist/tex/generic/pgf/frontendlayer/tikz/libraries/tikzlibrarytopaths.code.tex" 1288312291 11599 d694704a88e2f9007c996d3a6a4d629c ""
  "/usr/local/texlive/2015/texmf-dist/tex/generic/pgf/frontendlayer/tikz/tikz.code.tex" 1393459310 175287 31eb66e838dd5e10589736193a31943c ""
  "/usr/local/texlive/2015/texmf-dist/tex/generic/pgf/libraries/decorations/pgflibrarydecorations.pathmorphing.code.tex" 1288312291 8854 7be3c3b9eb0de90885a881085ce8e118 ""
  "/usr/local/texlive/2015/texmf-dist/tex/generic/pgf/libraries/decorations/pgflibrarydecorations.pathreplacing.code.tex" 1288312291 7089 02ec01183269fb6991e0be82d034128a ""
  "/usr/local/texlive/2015/texmf-dist/tex/generic/pgf/libraries/pgflibraryfpu.code.tex" 1393459310 65978 3f49ea85b3e396e3560678d1a548baeb ""
  "/usr/local/texlive/2015/texmf-dist/tex/generic/pgf/libraries/pgflibraryplothandlers.code.tex" 1393459310 32969 dbcfd5a7de6a0f7255c333ef60287d59 ""
  "/usr/local/texlive/2015/texmf-dist/tex/generic/pgf/libraries/pgflibraryplotmarks.code.tex" 1393459310 14199 2158f2770835a26274ae2f9fcbd179d1 ""
  "/usr/local/texlive/2015/texmf-dist/tex/generic/pgf/math/pgfmath.code.tex" 1393459310 454 9e9e7c99f4da4f41698be21eaef4938e ""
  "/usr/local/texlive/2015/texmf-dist/tex/generic/pgf/math/pgfmathcalc.code.tex" 1393459310 13416 940ea6971d7a65dc440d3479939c66ae ""
  "/usr/local/texlive/2015/texmf-dist/tex/generic/pgf/math/pgfmathfloat.code.tex" 1393459310 91879 5b3cc8d94c47a5b742393a410f298724 ""
  "/usr/local/texlive/2015/texmf-dist/tex/generic/pgf/math/pgfmathfunctions.base.code.tex" 1393459310 9375 5adc70f722abd29fc250d59e0694b548 ""
  "/usr/local/texlive/2015/texmf-dist/tex/generic/pgf/math/pgfmathfunctions.basic.code.tex" 1393459310 21406 80daebd1f9f6a174d8dc77c5bc931bf4 ""
  "/usr/local/texlive/2015/texmf-dist/tex/generic/pgf/math/pgfmathfunctions.code.tex" 1393459310 7820 5140d142921f39003e02ccedd072823a ""
  "/usr/local/texlive/2015/texmf-dist/tex/generic/pgf/math/pgfmathfunctions.comparison.code.tex" 1288312291 3534 c7f28fbac13616513e513efe93b8569b ""
  "/usr/local/texlive/2015/texmf-dist/tex/generic/pgf/math/pgfmathfunctions.integerarithmetics.code.tex" 1393459310 3167 7c9394e79aac27db96a92f9b2792b858 ""
  "/usr/local/texlive/2015/texmf-dist/tex/generic/pgf/math/pgfmathfunctions.misc.code.tex" 1393459310 9165 99b6966558714c44c0b5ee44ae261ffc ""
  "/usr/local/texlive/2015/texmf-dist/tex/generic/pgf/math/pgfmathfunctions.random.code.tex" 1288312291 6964 d4b5e82dabddda1c728063bb9c8a22ba ""
  "/usr/local/texlive/2015/texmf-dist/tex/generic/pgf/math/pgfmathfunctions.round.code.tex" 1288312291 2688 139c6abc86761a6190c2f4bef5d752be ""
  "/usr/local/texlive/2015/texmf-dist/tex/generic/pgf/math/pgfmathfunctions.trigonometric.code.tex" 1393459310 91075 1c1d7a7e8f0f737f72aa8becf0b37136 ""
  "/usr/local/texlive/2015/texmf-dist/tex/generic/pgf/math/pgfmathparser.code.tex" 1393459310 33289 b041d55e91f7382603e2dca6f9ad188d ""
  "/usr/local/texlive/2015/texmf-dist/tex/generic/pgf/math/pgfmathutil.code.tex" 1393459310 7099 f44d505bae6c7c2b933cdd63441db4b9 ""
  "/usr/local/texlive/2015/texmf-dist/tex/generic/pgf/modules/pgfmoduledecorations.code.tex" 1393459310 71902 658cc1e13f73daec4225b8fc1c27600b ""
  "/usr/local/texlive/2015/texmf-dist/tex/generic/pgf/modules/pgfmodulematrix.code.tex" 1393459310 20934 2328bd2e04520e1ab077ac4ee13b8935 ""
  "/usr/local/texlive/2015/texmf-dist/tex/generic/pgf/modules/pgfmoduleplot.code.tex" 1393459310 15785 e0b14c447df00370d2023fd5c9813190 ""
  "/usr/local/texlive/2015/texmf-dist/tex/generic/pgf/modules/pgfmoduleshapes.code.tex" 1393459310 42336 b13cf09dc317c76a2b165a8501d871cf ""
  "/usr/local/texlive/2015/texmf-dist/tex/generic/pgf/systemlayer/pgf.cfg" 1288312291 978 15af626ebd3d4d790aac19170dac04f2 ""
  "/usr/local/texlive/2015/texmf-dist/tex/generic/pgf/systemlayer/pgfsys-common-pdf.def" 1393459310 5437 d91f93ed61ecdc57e119849b2d784a0b ""
  "/usr/local/texlive/2015/texmf-dist/tex/generic/pgf/systemlayer/pgfsys-pdftex.def" 1393459310 11969 518d66d5b5e20471ba00709ef9c2b267 ""
  "/usr/local/texlive/2015/texmf-dist/tex/generic/pgf/systemlayer/pgfsys.code.tex" 1393459310 34488 3bab2022cdd1acab0cd383d8a0ad641b ""
  "/usr/local/texlive/2015/texmf-dist/tex/generic/pgf/systemlayer/pgfsysprotocol.code.tex" 1203877327 1983 b5994ebbcee17f1ba3d29bb1bd696fcf ""
  "/usr/local/texlive/2015/texmf-dist/tex/generic/pgf/systemlayer/pgfsyssoftpath.code.tex" 1393459310 7881 d459d6057e13d10ce7a227ae44b7295e ""
  "/usr/local/texlive/2015/texmf-dist/tex/generic/pgf/utilities/pgffor.code.tex" 1393459310 22211 d696ef78c12269178882d218b2cf191d ""
  "/usr/local/texlive/2015/texmf-dist/tex/generic/pgf/utilities/pgfkeys.code.tex" 1393459310 36194 e194ef4e0b396b531a3891feb4b1cc22 ""
  "/usr/local/texlive/2015/texmf-dist/tex/generic/pgf/utilities/pgfkeysfiltered.code.tex" 1393459310 33377 af391d6ad1bfcbe2278e191f48e43ba8 ""
  "/usr/local/texlive/2015/texmf-dist/tex/generic/pgf/utilities/pgfrcs.code.tex" 1393459310 2286 b5c392d27790ca52b8f8e510ef5044e0 ""
  "/usr/local/texlive/2015/texmf-dist/tex/generic/pgf/utilities/pgfutil-common-lists.tex" 1393459310 6833 114eda2cf1d348e0e7e477a1a4dc1941 ""
  "/usr/local/texlive/2015/texmf-dist/tex/generic/pgf/utilities/pgfutil-common.tex" 1393459310 16384 3fa06861c9a3391a75df39466f49655f ""
  "/usr/local/texlive/2015/texmf-dist/tex/generic/pgf/utilities/pgfutil-latex.def" 1393459310 4500 b148f531c7670d59c695787be06a508b ""
  "/usr/local/texlive/2015/texmf-dist/tex/generic/pgfplots/libs/pgflibrarypgfplots.surfshading.code.tex" 1364427911 22559 76257f115d85b663d7d24acad1c08d07 ""
  "/usr/local/texlive/2015/texmf-dist/tex/generic/pgfplots/libs/pgfplotslibrary.code.tex" 1422740226 3047 aa82404aec57311271f4991c44bd71dc ""
  "/usr/local/texlive/2015/texmf-dist/tex/generic/pgfplots/liststructure/pgfplotsarray.code.tex" 1312159636 21786 2b041bb5736e1a953aa34c45c10b82b4 ""
  "/usr/local/texlive/2015/texmf-dist/tex/generic/pgfplots/liststructure/pgfplotsdeque.code.tex" 1262481251 4288 b8d6247899b21e3bb66bb11b24d30f2c ""
  "/usr/local/texlive/2015/texmf-dist/tex/generic/pgfplots/liststructure/pgfplotsliststructure.code.tex" 1346285630 13625 52a72232796269a1b40ae1540446ef98 ""
  "/usr/local/texlive/2015/texmf-dist/tex/generic/pgfplots/liststructure/pgfplotsliststructureext.code.tex" 1312159636 24390 a91050077f9411f2aef1d9170ea974df ""
  "/usr/local/texlive/2015/texmf-dist/tex/generic/pgfplots/liststructure/pgfplotsmatrix.code.tex" 1364427911 18861 7dc35832c8ccea3aa73cdcd75ec0a60b ""
  "/usr/local/texlive/2015/texmf-dist/tex/generic/pgfplots/numtable/pgfplotstableshared.code.tex" 1422740226 75816 7bf4a1f6c39ae5fff1c5a142a2b72b66 ""
  "/usr/local/texlive/2015/texmf-dist/tex/generic/pgfplots/oldpgfcompatib/pgfplotsoldpgfsupp_loader.code.tex" 1422740226 4917 c5b4c19ef2e74c491caa881a723244ab ""
  "/usr/local/texlive/2015/texmf-dist/tex/generic/pgfplots/oldpgfcompatib/pgfplotsoldpgfsupp_pgflibraryfpu.code.tex" 1422740226 71189 65d7e88c1cd3fc885385f6011c926028 ""
  "/usr/local/texlive/2015/texmf-dist/tex/generic/pgfplots/oldpgfcompatib/pgfplotsoldpgfsupp_pgfmathfloat.code.tex" 1422740226 95281 deb64eaa5afb5bc8691b148da6a9089e ""
  "/usr/local/texlive/2015/texmf-dist/tex/generic/pgfplots/oldpgfcompatib/pgfplotsoldpgfsupp_trig_format.code.tex" 1422740226 12158 74e2ba9574dbbb34068d9a7fe9a9327e ""
  "/usr/local/texlive/2015/texmf-dist/tex/generic/pgfplots/pgfplots.code.tex" 1430688073 441094 07e1de9a0fe618aa341bd6bd806924e1 ""
  "/usr/local/texlive/2015/texmf-dist/tex/generic/pgfplots/pgfplots.errorbars.code.tex" 1422740226 22206 6837e8502adbd475dd0bb448d03ddba4 ""
  "/usr/local/texlive/2015/texmf-dist/tex/generic/pgfplots/pgfplots.markers.code.tex" 1422740226 12468 c7bf8a342a149a08e4d693258edc2751 ""
  "/usr/local/texlive/2015/texmf-dist/tex/generic/pgfplots/pgfplots.paths.code.tex" 1325285919 2419 026baafbf72a109e199ede6fbbfd9caa ""
  "/usr/local/texlive/2015/texmf-dist/tex/generic/pgfplots/pgfplots.revision.tex" 1430688073 520 6b1e8d0aa2d55eff015749a7d05ebada ""
  "/usr/local/texlive/2015/texmf-dist/tex/generic/pgfplots/pgfplots.scaling.code.tex" 1422740226 123672 25c1800798def4215fe7e519f171da69 ""
  "/usr/local/texlive/2015/texmf-dist/tex/generic/pgfplots/pgfplotscoordprocessing.code.tex" 1430688073 345197 4dc481c0be8f6ef6c62bd40d06f8bced ""
  "/usr/local/texlive/2015/texmf-dist/tex/generic/pgfplots/pgfplotscore.code.tex" 1430688073 17766 b94add329456f1781dfdaa983db0d684 ""
  "/usr/local/texlive/2015/texmf-dist/tex/generic/pgfplots/pgfplotsmeshplothandler.code.tex" 1422740226 113706 7a67968ce5b1a2aa2395ca105466d6d4 ""
  "/usr/local/texlive/2015/texmf-dist/tex/generic/pgfplots/pgfplotsplothandlers.code.tex" 1422740226 111712 97ccd8dbc5faf0775602cbe62fb0c2e1 ""
  "/usr/local/texlive/2015/texmf-dist/tex/generic/pgfplots/pgfplotsstackedplots.code.tex" 1422740226 22370 2db69038409dfe005e67410d74dee301 ""
  "/usr/local/texlive/2015/texmf-dist/tex/generic/pgfplots/pgfplotsticks.code.tex" 1407365279 82229 804faa87f2ff37428c8d2cb653eb4ca4 ""
  "/usr/local/texlive/2015/texmf-dist/tex/generic/pgfplots/sys/pgflibrarypgfplots.surfshading.pgfsys-pdftex.def" 1364427911 5877 aa302309c1cdddc36dd3a00cbd806cfe ""
  "/usr/local/texlive/2015/texmf-dist/tex/generic/pgfplots/sys/pgfplotssysgeneric.code.tex" 1351287374 3095 c82d281b748902a65be2ccca97360b11 ""
  "/usr/local/texlive/2015/texmf-dist/tex/generic/pgfplots/util/pgfplotsbinary.code.tex" 1430688073 23050 a369aa910ef860a3621fe0459faa335c ""
  "/usr/local/texlive/2015/texmf-dist/tex/generic/pgfplots/util/pgfplotsbinary.data.code.tex" 1346285630 26859 7a4ee9d206fb0a0daa0d3108445afb57 ""
  "/usr/local/texlive/2015/texmf-dist/tex/generic/pgfplots/util/pgfplotscolor.code.tex" 1380839021 23958 1b96260863091af1669c3a38b1c4c9af ""
  "/usr/local/texlive/2015/texmf-dist/tex/generic/pgfplots/util/pgfplotscolormap.code.tex" 1430688073 29698 698fa0611a5a3839fc76055b6dbf3367 ""
  "/usr/local/texlive/2015/texmf-dist/tex/generic/pgfplots/util/pgfplotsutil.code.tex" 1430688073 66400 9ac4062b8b51d0c83072ab6c88502478 ""
  "/usr/local/texlive/2015/texmf-dist/tex/generic/pgfplots/util/pgfplotsutil.verb.code.tex" 1312159636 3286 c17079ba50483e1ac1721268ea016041 ""
  "/usr/local/texlive/2015/texmf-dist/tex/latex/amsmath/amsbsy.sty" 1362954379 2412 2d98314dc5be38f455f8890deeb2d091 ""
  "/usr/local/texlive/2015/texmf-dist/tex/latex/amsmath/amsgen.sty" 1362954379 4357 ad30ad08920902fc9b38caf35a3b0496 ""
  "/usr/local/texlive/2015/texmf-dist/tex/latex/amsmath/amsmath.sty" 1362954379 79178 b2e326c351e876df0e5e23df2e02441b ""
  "/usr/local/texlive/2015/texmf-dist/tex/latex/amsmath/amsopn.sty" 1362954379 4082 502152465aedb8f6a3c4b0b7c0fa8ae5 ""
  "/usr/local/texlive/2015/texmf-dist/tex/latex/amsmath/amstext.sty" 1362954379 2637 846ebe982d3549c7ede7ce135456f54a ""
  "/usr/local/texlive/2015/texmf-dist/tex/latex/base/article.cls" 1428932888 20708 96f8bca6e380179cada1d49716376167 ""
  "/usr/local/texlive/2015/texmf-dist/tex/latex/base/size10.clo" 1428932888 9179 632e23fed01c842f2eaef1dd9953a446 ""
  "/usr/local/texlive/2015/texmf-dist/tex/latex/cjk/texinput/CJK.enc" 1429482942 29591 b3c404288523518719bdabea6811228d ""
  "/usr/local/texlive/2015/texmf-dist/tex/latex/cjk/texinput/CJK.sty" 1429482942 32721 8e131bb8a9a2f3a0ef2f239af995b5af ""
  "/usr/local/texlive/2015/texmf-dist/tex/latex/cjk/texinput/mule/MULEenc.sty" 1429482942 12177 49651d89af4c43f72d2608ca28d9934d ""
  "/usr/local/texlive/2015/texmf-dist/tex/latex/eepic/epic.sty" 1247274248 25873 0e813d2f6e266780f0cedef5eb5e2525 ""
  "/usr/local/texlive/2015/texmf-dist/tex/latex/graphics/graphics.sty" 1428932888 14285 20d80486c4ae98139889d8789596c967 ""
  "/usr/local/texlive/2015/texmf-dist/tex/latex/graphics/graphicx.sty" 1428932888 8125 557ab9f1bfa80d369fb45a914aa8a3b4 ""
  "/usr/local/texlive/2015/texmf-dist/tex/latex/graphics/keyval.sty" 1428932888 2594 d18d5e19aa8239cf867fa670c556d2e9 ""
  "/usr/local/texlive/2015/texmf-dist/tex/latex/graphics/trig.sty" 1428932888 3439 44bd4a1da7f27787173f2e99116b0a7f ""
  "/usr/local/texlive/2015/texmf-dist/tex/latex/latexconfig/color.cfg" 1254097189 802 7b8c8d72c24d795ed7720e4dfd29bff3 ""
  "/usr/local/texlive/2015/texmf-dist/tex/latex/latexconfig/epstopdf-sys.cfg" 1279039959 678 4792914a8f45be57bb98413425e4c7af ""
  "/usr/local/texlive/2015/texmf-dist/tex/latex/latexconfig/graphics.cfg" 1278958963 3563 d35e897cae3b8c6848f6677b73370b54 ""
  "/usr/local/texlive/2015/texmf-dist/tex/latex/ms/everyshi.sty" 1177890616 3878 6aa7c08ff2621006e0603349e40a30a8 ""
  "/usr/local/texlive/2015/texmf-dist/tex/latex/multirow/multirow.sty" 1137110401 7374 f7c1f13fc632dd5c9b220a247d233082 ""
  "/usr/local/texlive/2015/texmf-dist/tex/latex/oberdiek/epstopdf-base.sty" 1303254447 12029 04d7fdf76e0464c23b5aa3a727952d7c ""
  "/usr/local/texlive/2015/texmf-dist/tex/latex/oberdiek/grfext.sty" 1335995445 7075 bd0c34fbf1ae8fd1debd2a554e41b2d5 ""
  "/usr/local/texlive/2015/texmf-dist/tex/latex/oberdiek/kvoptions.sty" 1335995445 22417 c74ff4af6a1aa2b65d1924020edbbe11 ""
  "/usr/local/texlive/2015/texmf-dist/tex/latex/overpic/overpic.sty" 1284421880 3093 5d139c33b9cbb5c9f10ff883c2af52ad ""
  "/usr/local/texlive/2015/texmf-dist/tex/latex/pdftex-def/pdftex.def" 1306616590 55368 3c8a0d99822330f2dfabc0dfb09ce897 ""
  "/usr/local/texlive/2015/texmf-dist/tex/latex/pgf/basiclayer/pgf.sty" 1393459310 1190 4e20f1d26da9f86ba6a50d7ad16c48d2 ""
  "/usr/local/texlive/2015/texmf-dist/tex/latex/pgf/basiclayer/pgfcore.sty" 1288312291 410 5bf12ea7330e5f12c445332a4fe9a263 ""
  "/usr/local/texlive/2015/texmf-dist/tex/latex/pgf/compatibility/pgfcomp-version-0-65.sty" 1203877327 21115 facf03b7dbe5ea2f5f1dce1ac84b5d05 ""
  "/usr/local/texlive/2015/texmf-dist/tex/latex/pgf/compatibility/pgfcomp-version-1-18.sty" 1203727794 1091 d9163d29def82ee90370c8a63667742c ""
  "/usr/local/texlive/2015/texmf-dist/tex/latex/pgf/frontendlayer/tikz.sty" 1203877327 339 592cf35cba3d400082b8a9a5d0199d70 ""
  "/usr/local/texlive/2015/texmf-dist/tex/latex/pgf/math/pgfmath.sty" 1393459310 306 0796eafca5e159e6ec2167a6d22d81b1 ""
  "/usr/local/texlive/2015/texmf-dist/tex/latex/pgf/systemlayer/pgfsys.sty" 1393459310 443 0b2e781830192df35c0fd357cf13e26e ""
  "/usr/local/texlive/2015/texmf-dist/tex/latex/pgf/utilities/pgffor.sty" 1393459310 348 8927fde343487e003b01a4c2ca34073b ""
  "/usr/local/texlive/2015/texmf-dist/tex/latex/pgf/utilities/pgfkeys.sty" 1203727794 274 4cad6e665cc93ac2ac979039a94fa1e1 ""
  "/usr/local/texlive/2015/texmf-dist/tex/latex/pgf/utilities/pgfrcs.sty" 1203877327 325 2bcd023400636339210573e2b3ee298b ""
  "/usr/local/texlive/2015/texmf-dist/tex/latex/pgfplots/pgfplots.sty" 1422740226 3905 950b56ce7b0663634a7d0012af60243f ""
  "/usr/local/texlive/2015/texmf-dist/tex/latex/xcolor/xcolor.sty" 1169481954 55224 a43bab84e0ac5e6efcaf9a98bde73a94 ""
  "/usr/local/texlive/2015/texmf-dist/web2c/texmf.cnf" 1428852030 31983 18aeec08f48baa3cf3508d538dd5f459 ""
  "/usr/local/texlive/2015/texmf-var/web2c/pdftex/pdflatex.fmt" 1432479681 3849859 39a7d258195bde2394e244961601fbc5 ""
  "/usr/local/texlive/2015/texmf.cnf" 1432479636 577 0d611272082f3cdb8e80e09a3c69cf07 ""
  "part 2.tex" 1467322456 301 827c10e9363a3226b51da82151f4f951 ""
  "part_2.aux" 1467322458 8 a94a2480d3289e625eea47cd1b285758 ""
  (generated)
  "part_2.pdf"
  "part_2.aux"
  "part_2.log"
  "/Users/luansitao/Documents/Generalized Linear Models/chapter1/part_2.log"
  "/Users/luansitao/Documents/Generalized Linear Models/chapter1/part_2.pdf"
